,Rangos,Prom.Espectro,Varianzas,Prom.Movil
0,0.5054600278516357,0.005527025181989123,0.0024658393700709136,91.64158276558393
1,0.5399802992695344,0.005756190511517504,0.0025634941292742835,98.1401724012859
2,0.5372436522630694,0.007621993509687096,0.00344999919568668,110.13441407034256
3,0.5047725205736424,0.00552470177113469,0.0025039159996687135,99.68312496647845
4,0.5901748808803036,0.007809959976839156,0.003491342739502712,102.14050167765132
5,0.5702552884165675,0.006713300645210476,0.002983810034284064,95.45652586084991
6,0.5489214705509355,0.007896872300740092,0.003557617383407749,47.2471395929451
7,0.9694922810473359,0.022358767728341018,0.010201431151842258,260.51888302779696
8,0.796127455043322,0.01753457162159584,0.008050589446816503,219.56431694340912
9,0.9705403913794013,0.02985880954326213,0.013851467483602803,132.05468191695795
10,0.4250086815510722,0.004212543888347324,0.0018593001700045425,78.40485794757406
11,0.29194158731471864,0.002522105208057447,0.001147582090212873,72.05978294794538
12,0.8845808478287737,0.018499727049799384,0.008521390214016999,226.16108317261478
13,0.2340038480390971,0.0012151181741376286,0.0005574087019332352,58.426358625373965
14,0.23409993343339042,0.0015835357187179908,0.0007242449836366735,60.74972403533343
15,0.2706139988254131,0.0012828667137120252,0.0005915241526983215,55.59353620012146
16,0.26649540400034233,0.0010669764286287365,0.000489218177943991,34.82964749083296
17,0.20454761671327487,0.0012580453984857732,0.0005643836167357046,42.05691929540175
18,0.24859881734221392,0.0017905463051678665,0.0008005902830404229,44.15777412620472
19,0.2432856251739111,0.0017214620856285932,0.0007685715569197565,41.74685409271307
20,0.1185088237468842,0.00046197820272469525,0.00021258071743219452,19.168898958355005
21,0.19276045218147247,0.0006497704289262161,0.00030175490153804143,33.82754437639319
22,0.2041194705869749,0.00078606494660869,0.0003751773232319028,36.350995296162175
23,0.20523772089330103,0.0007665211836227246,0.0003560835799818747,32.81855795570291
24,0.20458849705106658,0.0009374726562045606,0.0004257335801370525,34.285614663955485
25,0.19378197489249066,0.0007430758574289888,0.0003412600093876971,28.207099745820372
26,0.5873706078441218,0.007962405741420578,0.003690705662269402,145.4038848534137
27,0.6124073603529689,0.009582159056166939,0.004392726428731624,137.53166677389265
28,0.5281837561512166,0.005489348147758472,0.002520935957151416,117.74008518640967
29,0.4423462833856594,0.004893907381397049,0.0022596779488739675,110.332093000798
30,0.5489557781827048,0.004980504805581198,0.002322022697328168,97.76763774718748
31,0.5580539895970413,0.006203591386059021,0.0028385712806429228,120.68450579383935
32,0.1330606108220801,0.0004395911109572133,0.00020863245917457346,37.5499123471065
33,0.1674607411090727,0.00040862922288933024,0.00018120992056778706,34.26772543809975
34,0.13682604828715556,0.0003516258859174226,0.0001588009592923541,28.317084289488218
35,0.10828800686806656,0.00018233851135311685,8.449979679270219e-05,33.91234054778609
36,0.08035841927645893,0.00013416634342167582,5.943732209091785e-05,27.350989674532386
37,0.07418841967323347,0.00013279646472504615,5.9958043429048055e-05,19.205295745875805
38,0.07098635632892644,0.000132595365855062,6.0678680728991063e-05,22.721186928382895
39,0.07096408170219293,0.00011088371231765927,5.0255539659120375e-05,17.413984788275474
40,0.07201843391439852,0.00017437030333224252,7.872881493048362e-05,21.615710054932443
41,0.34068468697251936,0.0030312088595802057,0.001384616816246219,150.83131147567764
42,0.34399203930588274,0.003369117856450753,0.0015439362658998385,139.4794965880156
43,0.31393820608791734,0.0027683900557838054,0.001293632674819578,152.03412692904394
44,0.31776537454880494,0.0017959879608125057,0.0007976538484676484,169.01301576449038
45,0.5582302491023088,0.006081736828083532,0.002938024105609649,236.25228964866204
46,0.5252892544665655,0.005451047922074774,0.0026676494873276663,244.08268581853275
47,0.5345094226815648,0.00749551681366831,0.0036081750861612035,259.0875056034623
48,0.5266424186854985,0.003911472675696263,0.0018721315066134324,215.91261889978296
49,0.08393895214200253,0.00019243912812497984,8.83483006630435e-05,25.639481829800992
50,0.08779099617795219,0.00021465488590571423,9.61725561087012e-05,30.42184653947927
51,0.08052986739947632,0.00023252969607515797,0.00010612526398668622,28.978720505549372
52,0.08581719914292917,0.00023246357451562325,0.00010839861727737646,31.794364208993567
53,0.07344196058062596,0.00011787063684094537,5.1273831666930014e-05,30.263059586216254
54,0.5054313105030694,0.0079945187751093,0.0037528440195805654,115.10136992538145
55,0.4897643662926394,0.00812191379302022,0.0037841530751895123,156.74717628696584
56,0.5488052035653839,0.008258794604092519,0.0038795065469679796,146.25324703466777
57,0.505647560360629,0.010623378278870756,0.00486676192540867,144.43169713267832
58,0.4866487758737481,0.0038505777878873053,0.0017502424096630302,95.01871656440258
59,0.1729619620647216,0.0010047936556043273,0.0004658449450182913,76.96061753400556
60,0.1660416711795656,0.0009073774136143792,0.0004222100669495704,61.56974183961629
61,0.1758740049781499,0.0009333681628684299,0.00043035067201231957,53.65657912837031
62,0.12685020830232877,0.00040962403635203773,0.0001801397143974946,44.71921956696722
63,0.055174460384649154,6.758867669823288e-05,3.1411419634616194e-05,12.929492013259498
64,0.0424028683710992,5.822792077591829e-05,2.684852541225282e-05,10.482645877974452
65,0.3122122914258187,0.0022360632143914416,0.0009833667689336297,67.27903853445265
66,0.310493644961435,0.002239025216515053,0.000987120875610684,67.87689335217648
67,0.12147234485762234,0.00032598793190835275,0.00014263662107174185,25.875778747830285
68,0.13357744081430473,0.0003514730490414007,0.00015326955000832947,26.435949707256263
69,0.1331213814096756,0.00035767006863601564,0.00016115578066581412,25.47124121744698
70,0.13691086168577699,0.00043597254551323806,0.0001978980922970031,26.418323858052975
71,0.2866688588042945,0.0023665173551670688,0.0010599960298318498,42.88207764076459
72,0.3377255973629303,0.0022800349158280664,0.0010155558891727211,67.0676965046718
73,0.32982091925578244,0.0022224523635690535,0.0010151034836290056,85.14615780392711
74,0.33713551101169703,0.0021886069737343276,0.0009840544044215525,73.21682220457578
75,0.3337420707368961,0.00209196822635401,0.0009471481060322887,80.32411402255518
76,0.3226258867233327,0.0019997828191623958,0.0008949147343027459,65.32484141947828
77,0.3569225769503497,0.002223165252848204,0.0010004196155423443,64.7936733586003
78,0.42171559290035965,0.0028354916544299715,0.001253953125109605,80.60277453303691
79,0.35972518921134644,0.0026086510064116408,0.0011343213499976931,71.9267895290859
80,0.3721500177293775,0.002749948069727845,0.0012114182365092875,70.71780831921546
81,0.5348990056164791,0.00770504004797048,0.003379228905566291,129.01395517641922
82,0.6577502747155777,0.007317707369723956,0.0032125003275773117,130.5003116184154
83,0.5895334627167033,0.006635624905903328,0.0029600811258800493,105.60183050684127
84,0.6377458582985467,0.006867438277994043,0.003050310662660114,98.78879798129282
85,0.37687563787017003,0.002511330039887976,0.0010959692154037224,64.42437679082731
86,0.29677754829312586,0.0021114216812127815,0.0009204929684859556,60.70870764999645
87,0.3337696032652324,0.0022712103681304403,0.0009878846293902785,51.123532094342806
88,0.24537909779845185,0.0011681217868280472,0.0005398325258453542,155.62891720619902
89,0.27625643100861874,0.0012994413265913914,0.0005947453602884059,142.2261934098947
90,0.297415247825886,0.0016159321335724277,0.0007621605673718218,167.94210896108845
91,0.3282880438769837,0.001790491450472348,0.0008535308419676608,161.61130779185729
92,0.2824423648725234,0.002088142966408019,0.0009199813750314219,80.03212271662139
93,0.3045625317705998,0.0021178919480881186,0.0009423880636837915,70.38350725629263
94,0.33161247483694484,0.0018965354737066407,0.0008357089944529979,67.22841624923647
95,0.25281448795200845,0.0018151180903732886,0.0007998975402484593,65.93155140883412
96,0.2608543103969747,0.001874053786093734,0.0008215763757298433,62.9831326820626
97,0.16684083791509877,0.0007574541831856077,0.00033150024740828953,43.36155632579778
98,0.18023592371725317,0.0007301392855036342,0.0003197582178145351,41.55634190357429
99,0.18992643148304686,0.0006620660986036574,0.0002926033360875502,38.4130849450193
100,0.3751791656352209,0.002202547439586594,0.0009867349984671902,88.23226621471464
101,0.31494941275076255,0.004355589894750676,0.001977955395471899,25.004511797537408
102,0.17139246231039923,0.00045421707730713967,0.00020356299454437718,18.498506917413998
103,0.17427007587442117,0.0005827026490936795,0.00026276057306497195,26.167208713079063
104,0.11048710438571308,0.00042291674014742313,0.00019492382276880437,49.359368855015404
105,0.05360169519227831,0.0001551976014210294,7.248578771563443e-05,32.71135325710343
106,0.3003766212553601,0.0014475329281612194,0.0006598888989698114,167.0024909682105
107,0.2158723541727186,0.0008025982150894216,0.0003545773478345212,38.69838398702797
108,0.16884899876809265,0.001379927805447941,0.000634834169078986,72.822089474133
109,0.007672237087071914,2.563557508829529e-06,1.197160972593313e-06,5.433985285315685
110,0.2601252560779581,0.0019983307100696094,0.0009082150585051185,180.15632828183303
111,0.2830958765988241,0.0016933614568056627,0.0007673569332608824,164.49046073656106
112,0.16720103331534023,0.0006026172887625977,0.000269323157700736,29.564540191643342
113,0.18894708779258518,0.000860072971539879,0.0003799444534810019,37.814679489564114
114,0.20454632802072314,0.000825627150383009,0.0003663790435800884,34.060999585695356
115,0.1842638602565757,0.001398756664305495,0.0006415161831695137,65.25648586209483
116,0.16371669126709013,0.0012812459944942377,0.0005925299181958061,67.31475065513476
117,0.00923688720247726,2.3594333243322046e-06,1.0979119038772233e-06,5.447252967166762
118,0.0072551766477331175,2.3131581552312668e-06,1.081769792387667e-06,5.272251905462006
119,0.007520938125505567,2.447342514791384e-06,1.1397659200816778e-06,4.724060333622028
120,0.007640015744663389,2.3389964858454213e-06,1.1037124337007004e-06,5.384826482664519
121,0.007918330882938435,2.4275953717875976e-06,1.1360921197921392e-06,5.3524226798465895
122,0.3295063295031153,0.0015064597853520212,0.0006604757901664723,28.546018060144437
123,0.31607098972134123,0.0024012757159364985,0.0011115535236616576,91.24736678948999
124,0.41560573104714027,0.0032117051664811366,0.0014489937065451063,85.4800331841292
125,0.24732330776225825,0.0010528462471276216,0.0004865408264807302,102.8475223943645
126,1.497739991909422,0.033014656609884334,0.014507410985343342,288.20568736230325
127,0.8933028526361972,0.012657268052038166,0.005529111877902703,172.2847724541696
128,0.6700127722113777,0.009898322883581221,0.00430865536094674,181.26428099369195
129,1.2834605962077061,0.03039585231702807,0.013297500216522127,285.187810499159
130,0.4893327365674013,0.005380106495335883,0.0025119829023936206,128.67903460202558
131,0.4990419272107498,0.005749892971808658,0.002635838802868005,65.12311619631396
132,0.5228705166319216,0.007208254352573389,0.003291039496002357,111.57981215584044
133,0.5112528438771671,0.005531978946499419,0.0025422507601517664,49.65536261213643
134,0.05334975487032195,8.246728106818767e-05,3.797932066411696e-05,13.945056538039072
135,0.02254572161490933,1.0988983023941272e-05,5.1523091720588625e-06,8.719132476614103
136,0.014845205957045565,4.2819806081947335e-06,2.11362486074924e-06,4.577784197444062
137,0.02886062200540762,1.2808649621214855e-05,5.981631290850394e-06,8.773151124681851
138,0.03362176637997392,2.308443179717367e-05,1.0735035921895861e-05,11.154744133752265
139,0.027592039579223755,2.09856067881755e-05,9.742591398756507e-06,11.388435349714628
140,0.03217104845536229,4.422434785911492e-05,2.177965063959578e-05,8.265303353107976
141,0.032370268960530094,2.3157908916303616e-05,1.1054693210672881e-05,12.02500454576017
142,0.033155549101052895,2.3369024624396895e-05,1.1265712451505028e-05,11.845792949964103
143,0.031080133202871466,2.3198896185925458e-05,1.1192279049061575e-05,12.692183311550217
144,0.033540411118090266,2.3553341611613983e-05,1.1343147434859471e-05,12.68531614587927
145,0.030097953177745634,2.2532240902449106e-05,1.0164564086083254e-05,1.5108747836988832
146,0.017395805436636984,6.453805280568602e-06,2.9359317954460467e-06,5.924076623330555
147,0.019062696784714638,6.279742943486508e-06,2.851541213833863e-06,5.8732412593438
148,0.019837894489226685,6.416701787768064e-06,2.915892867579058e-06,5.281641393009397
149,0.05096855043180609,8.145616459232611e-05,3.917170379851009e-05,7.8061015608669395
150,0.06482986331160963,7.747962109412091e-05,3.6045942494330916e-05,6.797992734333633
151,0.1760939917677432,0.0006900229836905865,0.00031332734866983857,48.8052875843399
152,0.1623061627570927,0.0007046308102889244,0.000328541798016557,63.155081408166666
153,0.4197843921367205,0.002185942051219243,0.0010119360733030476,133.19066125533143
154,0.3407557257054745,0.0027985917023944985,0.0013057581655273557,129.07004687582386
155,0.35383981486043714,0.003414198939823902,0.001583445936299471,145.97829597455808
156,0.6039695221351281,0.009732492138816353,0.0044627938239126235,135.47577121552877
157,0.634161471876177,0.007995243190067877,0.0036409266105726806,195.6280005503441
158,0.6013759389709314,0.00827569533990718,0.0038039699130737415,254.0777141769509
159,0.4258166818169338,0.00243572944342328,0.0011211636055810375,165.85275149777678
160,0.4512439502184783,0.002774365743075416,0.0012657019704767044,164.43827244074166
161,0.5213431312609428,0.007167672169776018,0.003253470526585812,176.85152325804998
162,0.4412320446054888,0.005808367056281941,0.002615507063703945,190.48669044626314
163,0.45816268319207043,0.0038840723949271705,0.0017807897596172346,166.5403366260511
164,0.43890946088306587,0.00287837447408936,0.0013273022588187276,195.16945939885005
165,0.4108226239345464,0.00503508170477833,0.0022419375069154617,98.737417463287
166,0.4006033517277979,0.004661615340765566,0.0021304634181975057,124.22493749696295
167,0.43253554635926683,0.0030107634859282174,0.0013624888504720817,88.61502232947943
168,0.38326751869910836,0.0026550787666559704,0.0011989708350908937,78.78104024493649
169,0.5073708003938737,0.0037823288462213054,0.001701043662507918,175.89080705777664
170,0.6512307971577569,0.009632608376022063,0.00436422427941507,211.69721979903218
171,0.7557402599290289,0.015579719685923693,0.0068555370475485685,348.1998676443675
172,0.2636424356859059,0.0017688072919246995,0.0008140868877176081,108.55389564496404
173,0.934229342574092,0.027507914602125674,0.012416927910948236,326.71375661641315
174,0.9170239583244008,0.015542381407223946,0.007053005302956829,367.54951732523926
175,0.5066354783430245,0.010328134051915919,0.004562996940589455,235.5102707436835
176,0.44374398966226253,0.004370578721403323,0.0019404615251731633,159.32454156107724
177,0.4661903407719661,0.00462996017387411,0.002047007352528515,75.92530396252911
178,0.01927879836816347,8.952412051361527e-06,3.978658059125057e-06,6.58209222531661
179,0.017292669940257223,8.005722591920254e-06,3.6062935909139603e-06,7.096080488981952
180,0.019373734665517624,9.675271383734801e-06,4.353110981210549e-06,6.909860832386965
181,0.024266380790703368,1.0615244679775636e-05,4.729070138442225e-06,6.458845288872585
182,0.019985102219954382,1.212341551787437e-05,5.48592727618274e-06,6.250569293507163
183,0.005354746509430829,6.680437167291638e-07,3.2219234506161327e-07,4.624837655294412
184,0.011914647510093393,4.041575912184775e-06,1.7748517464594089e-06,3.7646693708173573
185,0.011572090535525667,3.7926691265847248e-06,1.6826997171650074e-06,4.137032557600467
186,0.010834165526217,2.6576378394748813e-06,1.1721729223885552e-06,3.2580491357620223
187,0.010166142144125236,3.0408308083700383e-06,1.3436172124805554e-06,3.514306059511345
188,0.01419068423280016,3.7707742567354276e-06,1.658750859772169e-06,3.5179307361459577
189,0.013326364827637955,4.8494700392737265e-06,2.1463350348602906e-06,3.2238674206585984
190,0.04610741678730977,4.1317552143145364e-05,1.8520271868095875e-05,14.089743897364578
191,0.0417838100388938,3.8938770556802765e-05,1.772220385287125e-05,15.156598539545119
192,0.04332214679028752,4.5694962649506915e-05,2.0576907595585584e-05,11.585123916542907
193,0.06531191208367798,0.00011943079894654442,5.401170043794975e-05,20.119509578342143
194,0.057958871218794825,0.00012729361390167911,5.721860685951031e-05,21.55328562020244
195,0.0699310095425404,0.00012729629453656804,5.713896571140141e-05,19.42399977831004
196,0.0696433857638451,0.00011826333593718327,5.316289669422366e-05,18.974857413992112
197,0.07199889283000269,0.0001592531770422704,7.212052272770512e-05,17.126653438810997
198,0.0784287903421689,0.00012036884431849028,5.3082185831235746e-05,15.734805005389022
199,0.05571462320021548,9.368251207840725e-05,4.110632478766739e-05,13.555892758684479
200,0.06323841499345287,8.762170021159561e-05,3.836410375653661e-05,12.061094719750535
201,0.08426934168917465,0.00012071689263024584,5.272201965857873e-05,13.016421198716525
202,0.086469396110467,0.00024399424740066908,0.00010673268383337012,17.978117714441566
203,0.08258092395414805,0.0002928402350222294,0.00012995831647084658,20.523210834652673
204,0.07792969702785833,0.00015657045701248162,7.016556616853982e-05,15.762752918115153
205,0.08296572285754672,0.0001785670063931316,7.942461508431598e-05,17.92391657773236
206,0.09756832299105939,0.00018862010989170684,8.847592476071296e-05,31.992295279158526
207,0.0858038874830235,0.00014827075954944367,7.035381674754566e-05,31.66230518363196
208,0.10556738609416133,0.00013284081716287739,6.338054650983235e-05,28.054327754219315
209,0.08382277916352954,0.00013025341869394452,6.075596832243798e-05,26.64881760786347
210,0.10327777637275184,0.00011368371708482793,5.337775064274841e-05,28.381473526228902
211,0.0788846724016628,0.00018995200179225822,9.02153951033423e-05,34.516221735613165
212,0.08924306221903247,0.00015239491258842766,7.15730133680404e-05,32.79563329495995
213,0.14569943308675992,0.0002658513658590314,0.00012336693890503293,47.1205521611879
214,0.11024298638869327,0.0002347828154024106,0.00010391932913608585,42.33617494742984
215,0.08816402036194171,0.00018988785348148597,8.484327406507725e-05,21.96900777770882
216,0.10729944346088377,0.00025287152064225896,0.00011441123971838411,23.160397155119504
217,0.09244450572420493,0.0002013004584205506,9.16921824597588e-05,19.951172453982462
218,0.0710802500277625,0.00011499900528425364,5.2533381991879466e-05,19.757545084406306
219,0.09686317543134576,0.00016298641971027083,7.306917766158206e-05,19.92943729145171
220,0.09450161246719865,0.000179631547662575,8.17522932420176e-05,23.091508122547886
221,0.09850449231746987,0.00022914800502752767,0.00010266613478617943,23.14835633603731
222,0.12407523282023135,0.0002710347289945943,0.00012354652542128977,27.103474938643203
223,0.12418342067426077,0.00029793903341293387,0.0001346845894122164,16.42814308190781
224,0.12508851872913546,0.0004604430484379045,0.00021018894705854637,24.553231084473786
225,0.14073072610519607,0.0003066745050482428,0.0001377746452740569,20.298035271664155
226,0.12195971310611278,0.0003368638237596717,0.00015189617476470637,18.31774348543359
227,0.1210655901772495,0.000265925419177966,0.00011924401595990053,18.533080098025877
228,0.10478477633435097,0.00020951832160191625,9.528790548230483e-05,16.5565031614907
229,0.12708676494796184,0.00036340598796285093,0.0001690036153181705,23.49716244562618
230,0.06749155398609577,0.00010416447820224132,4.66740151672694e-05,10.888245473344826
231,0.059824344304546924,9.154445151303543e-05,4.1763576478239e-05,11.733475350408419
232,0.06205476668657741,0.00010534809097871593,4.751030955157611e-05,11.79373919048896
233,0.06578986953472156,0.00011573372476151748,5.180667822271141e-05,10.959758122760958
234,0.05721685591492999,9.512788993768175e-05,4.237858735858445e-05,10.830981824377664
235,0.06729962008022201,9.599054714928013e-05,4.321266429236176e-05,11.215846235228751
236,0.08256874775811401,0.00011079632957772224,4.9952089809144935e-05,12.37968772447263
237,0.06847205412144419,0.00014190887027605377,6.270656443699833e-05,12.720408839250592
238,0.06642897755757084,0.00010257323688853332,4.589404655680194e-05,12.979561859493328
239,0.019526649781614006,1.0359271618290858e-05,4.544739482396322e-06,4.0035369511440635
240,0.019109555054632098,1.3031224553426747e-05,5.671011125456695e-06,3.974267708604651
241,0.021884815455431313,1.3068952468455336e-05,5.7230485145209936e-06,4.237402302908118
242,0.017540678412305815,1.0011116817525904e-05,4.338466681463414e-06,3.833990807103942
243,0.18930066211725483,0.0013638374588164635,0.0005903385504410432,44.15992189409566
244,0.23771601644310245,0.0019070714919855387,0.0008308149455065199,44.15841717345381
245,0.24059499857246566,0.0014687749327545266,0.0006464607241014609,44.46711115301977
246,0.2271610178760061,0.001472102434468125,0.0006433868399219638,43.35480480460619
247,0.19232322797267487,0.0016289802752540946,0.000704513688117376,42.74759045482146
248,0.2785630024723167,0.002545464317025342,0.0011021891439931292,51.72209197123265
249,0.24294627128235652,0.0020821050253179434,0.0009060552790107761,53.607992175280216
250,0.460968482910353,0.006399751160294663,0.0027797872564836127,76.53213827391845
251,0.34461469113703724,0.00403010734234213,0.0017904235566677386,78.1499128383408
252,0.4129472820539724,0.0037360795636195493,0.0016412299996061684,73.42975400699238
253,0.5481670436476211,0.007095189516024678,0.003122921307806505,88.321672198824
254,0.5360184897306801,0.0045410108187613546,0.0020009899313259754,86.76700223612352
255,0.4800842048547005,0.006052035299387819,0.0027374419462453943,63.71500786816066
256,0.4743794352092614,0.004395693989897314,0.00196255912906658,88.26032824097236
257,0.45074904431597385,0.005622037330574106,0.002505613536658166,86.26974430898106
258,0.46183460066865356,0.006895627745659007,0.003034637571430164,58.753109687292444
259,0.48892301313645803,0.006732383498645221,0.0029725957411807077,95.4423389361935
260,0.42967056719103175,0.007426180200842791,0.0032438588779199824,85.72694507371445
261,0.271510046688308,0.0021410507413255598,0.0009700632295849988,51.69332828780482
262,0.49449518369895795,0.0055038598113897105,0.0024834326773923157,54.51848737781753
263,0.4769266718884779,0.0047789615485929636,0.002158742711959503,104.06325623926149
264,0.3968503044125955,0.003493740411355893,0.0015517319147083579,82.5977848349271
265,0.3860600854362893,0.00554007697489806,0.0024390440732237903,91.07254459636167
266,0.5195188289092567,0.009458767442349806,0.004219325555358872,78.855330276995
267,0.45774853011050387,0.005554942866398399,0.002470526556024956,98.40264282827857
268,0.5200468385121867,0.009002594574773077,0.004004540860236579,107.82892721450756
269,0.3532964262694315,0.0032081540476061538,0.0014320955579891408,73.24147834359295
270,0.3276240558461777,0.0024025580891979194,0.0010449641483127976,56.62026118628208
271,0.35448335800297226,0.004397978003819389,0.0019062290118119372,68.46884499689135
272,0.31587363418247405,0.0027149644583030004,0.0011893851455164186,54.310233608037
273,0.8088175809908018,0.01291390530288392,0.006038665741984704,160.8964977819964
274,0.697961634510608,0.011315952442415934,0.005008105872999051,114.29085023613665
275,0.6871418567127745,0.011655630539469306,0.005174705048796724,108.60369252424181
276,0.6472918740857101,0.009630028695052181,0.004331115898578239,95.34790780224108
277,0.7401524759405815,0.01754838403444392,0.008046997878030834,92.45949511018276
278,0.5802699947395863,0.00857019468317026,0.0037070318768377616,85.60393200381199
279,0.6326236231185824,0.013065566033840455,0.005643770989340506,101.99686739574547
280,0.6487578099640225,0.01074338286754527,0.004731567907554022,89.74171277574428
281,1.1262866819590807,0.03711470485909918,0.016293498194151084,175.8828524273377
282,1.104633960899302,0.025482538981801715,0.011263278250767601,157.0088729370636
283,0.5480650365251984,0.01089285879705998,0.004925771450531614,75.74620408217969
284,0.4857708182080118,0.00811359985453743,0.0035461574013042046,110.12633058725842
285,0.5195117350351549,0.00633763198815756,0.002793564436591072,98.72933848592831
286,0.47633019957076184,0.0055949213172837575,0.0024957640913330346,93.75124981430659
287,0.7280511870991881,0.013187326998265208,0.005913027788470201,120.41704285111204
288,0.6956343275137109,0.012117564054865304,0.005478835576623835,110.31829893505346
289,0.6832958030260515,0.009169318715378799,0.004124088730083376,99.61669674123085
290,0.40467995985705285,0.004390997422734658,0.0019181307320338017,73.08018041669744
291,0.5246146664835484,0.00557595418165052,0.0024210134412331772,75.48772673393212
292,0.5888338657039636,0.006135429700144012,0.002705045088553562,75.20042728442849
293,0.5609935345719317,0.008751614674356402,0.0039015719078075895,110.38719499727362
294,0.570512418619782,0.006844286818314507,0.0030154822452894384,91.68520018194906
295,0.500053625551286,0.00574003920596442,0.002569625089534912,70.19636179439996
296,0.5823536872190753,0.010243281428881779,0.004587306141948149,109.5563318759169
297,0.5179803695755458,0.007207297518845895,0.003259079117754971,123.77666762818707
298,0.47455122996143095,0.004922229593041259,0.0021809787703358638,110.45424374460102
299,0.4125320990563697,0.005645396775987262,0.0025087695077399864,116.36235151284104
300,0.5105389315263876,0.004447742624763174,0.002003429723513156,80.68947435139442
301,0.4021867423250629,0.004616513837872838,0.0021129248310431397,81.49859089683653
302,0.4957462905473433,0.006111876620005769,0.002770674850581687,89.29904086171975
303,0.585754916129726,0.007848387623683235,0.003484923511514638,80.75101501248879
304,0.5924482337849147,0.007203148482480479,0.0033243456438361465,75.40228728872962
305,0.46536690864193414,0.005275953144678106,0.002299002997008451,73.88598717310529
306,0.517959667525443,0.005729371479473042,0.002585276737269733,75.21721735554594
307,0.37985111962827733,0.00322366495314529,0.0014068444947054198,58.376247120726205
308,0.44962730918176735,0.004978419651238459,0.0021919347815781954,63.54842375630311
309,0.37635567302475237,0.003976749098883535,0.0017708455542569622,66.85619813960906
310,0.3781786046884261,0.0035975752312247854,0.001580458820258111,57.40190946563149
311,0.5130488944757313,0.004409005888937109,0.0019441676965746496,58.31545637822043
312,0.381941588186112,0.0036605395855755173,0.0016341778465629555,139.01228478948065
313,0.434869416246411,0.00444097600980991,0.0020047762015522256,179.89883044342145
314,0.5096605293278689,0.0057059174320353906,0.0025630474981598508,133.26644497973405
315,0.41478367486015166,0.004483474114344296,0.0020142720420714736,91.14253798858854
316,0.41207471386565186,0.0035332986926247694,0.0015353169614570974,52.51806885936925
317,0.39442779808435524,0.003711025279688898,0.001605618212482945,47.65897425756668
318,0.385887459124721,0.002804155765898457,0.0012434804633762583,76.72356357382279
319,0.49135587112864054,0.0072764988189632975,0.0034540706624910647,171.5876434705017
320,0.5786785527906981,0.007049555919604305,0.003375890045951633,140.19009013405702
321,0.1306866005469181,0.0006072077469436206,0.0002781445068572174,67.41852358182228
322,0.12376622778738923,0.000503932219305587,0.0002280208425755843,69.93464513197686
323,0.12220184116755947,0.00048398898933617497,0.00022254257858516892,61.80580771254791
324,0.21956746154683704,0.0011606552420330416,0.000515113922616108,59.7745155758905
325,0.10749248180255364,0.0003397601318581866,0.0001489343370666059,38.48266497741587
326,0.13990894370457174,0.00040166424128051985,0.00017609045119897491,39.51643005726267
327,0.16211322048332788,0.000634743343925751,0.00028795394593867626,59.04385601105843
328,0.17592392130573853,0.0004801244214324788,0.00021907111176515406,53.286749797814814
329,0.1567653283677755,0.0004974753530032236,0.00022702989445590147,55.09713344958019
330,0.15751050060530145,0.0005042775963567312,0.00022814159219078747,55.85840009008832
331,0.27785513703749154,0.0011199120825461171,0.0005141112911280051,74.9960755488628
332,0.22038380007059633,0.00116760554937723,0.0005409983769410643,73.19616530942254
333,0.21830579105107856,0.000944016055142698,0.000421512891684525,58.614011255569096
334,0.22247382842667973,0.0009078000612006517,0.0004108639224093099,62.95905847168721
335,0.2090867479062376,0.0011220312186234443,0.0004876911682344755,62.430054068881155
336,0.21578778170173524,0.0014199219753786684,0.0006203453495411932,68.91807990591525
337,0.12407408692128133,0.0003906390328429372,0.00017229759021349707,46.662360432342545
338,0.17147885881669095,0.0004689281470737919,0.0002121506791669319,61.71211646730007
339,0.13838498923470222,0.0004375879805179442,0.00019919812582437627,60.73567359901841
340,0.05292299782336,6.107395779327815e-05,3.3259987725836804e-05,10.669223687498313
341,0.047109778771843455,5.026294913915257e-05,2.3622227557660515e-05,5.233936319422509
342,0.3403112520190016,0.0027941439988477096,0.0012597968525739406,216.07734282989756
343,0.3449059288621489,0.002668470473077047,0.0011962934809561605,76.43011351611355
344,0.32876387880152225,0.0022481629109285177,0.0010150850172241013,70.3803294214452
345,0.3458774321768334,0.0027703548987781197,0.0012400276806518037,81.4281321385545
346,0.30420464489797083,0.0023032845466462886,0.001023572341370475,73.1124792995609
347,0.6099412960827404,0.007753377143208968,0.003493610422688276,121.84202760106886
348,0.09576230260221869,0.000379947277382904,0.00017955219216445715,36.80106400565475
349,0.09755016217370488,0.00031150087433062535,0.00014565235022050228,33.28123241996247
350,0.19695711127016108,0.000466532227247369,0.00021591693804426363,35.569474306836725
351,1.158522092595256,0.03282327253508077,0.01539461346607936,386.05743512119204
352,0.99086062971723,0.022245542177693235,0.010476860991334392,313.09295030124423
353,0.6312718586162066,0.009451565128622883,0.004211786637518418,178.52755399618772
354,0.7548976535874041,0.011704721491460957,0.005464653108380607,279.6364621804761
355,0.5283516952054178,0.006786518636102433,0.0029830709119656657,111.74200682158886
356,0.4587133547802334,0.0035782198109724894,0.001650350640315107,98.37957508344152
357,0.36074872493762633,0.002049757516165772,0.0009391180698963132,119.38896075609087
358,0.37329891503054713,0.0021717704396548828,0.0009962639919423825,124.26270610659401
359,0.11839938997968899,0.00022535200564488932,0.0001069555181606112,39.3784347501369
360,0.1090464476280465,0.00022489030552122333,0.0001079240689895272,43.788978310040704
361,0.12391510182591033,0.00047886300830403205,0.00023592464324630042,116.16113909362265
362,0.06389425005019898,0.0001565611960636675,7.377312674677994e-05,57.98719047387699
363,0.05509875556623785,6.080485303854997e-05,2.783557125274956e-05,14.223969627334958
364,0.14029017961102602,0.0004063160658623957,0.0001831189689837852,30.61408785228745
365,0.13057786594192017,0.00038174718952513884,0.00017033944038406592,38.11643726307765
366,0.17143742529937292,0.0009377593778894886,0.00042753067869077217,26.295071608483017
367,0.33887810465406965,0.0026681108379371064,0.001187464587792813,37.14293914083597
368,0.2967048834387423,0.0022676602655722746,0.0010008693172134867,32.903113174368976
369,0.1936653064036054,0.0014323467459322569,0.0006282418214107322,37.125144709272206
370,0.021211537119235235,1.677096690707394e-05,7.5881768365879195e-06,3.8633009254345176
371,0.07989951966254434,0.0001684129808400895,7.603700327974673e-05,58.604759826844266
372,0.08134873500566486,0.00012942833838466424,5.8241026054860337e-05,48.07854028909598
373,0.09558892170549987,0.0002059340191252084,9.170851916193013e-05,63.873219004526455
374,0.021064620667434447,1.0665501887759275e-05,4.801741463349814e-06,3.8243400234243055
375,0.6852541172254107,0.014606771762980567,0.006507977749197736,252.51156117647787
376,0.771358965266294,0.01415869802822653,0.006419117328078546,312.7483168971534
377,0.6935423972775687,0.012679729347021816,0.005587171588510894,242.5548496695525
378,0.731819516029776,0.011766665572311366,0.005196972093196379,224.67034423383797
379,0.6397211348845222,0.011391126357403145,0.0050765957472564995,218.5307938832529
380,0.3344403247580916,0.002073753053562107,0.0009958412955413966,155.44022260464422
381,0.28791185783178236,0.002218596524708815,0.0010586713330651483,158.48491429612073
382,0.3134442508010501,0.0016912420152753985,0.0008144063341337895,130.58540950203687
383,0.29425707432260095,0.0017942121328600213,0.0008563024308460851,135.01965683259965
384,0.3127598707984224,0.0017111335262057345,0.0008088692727090725,130.12690991520495
385,0.839676804949177,0.014312494493748908,0.006523422179910532,235.01973671380844
386,0.8086005882868497,0.01744551142139359,0.007825857219902867,287.16184612363537
387,0.9530547510851552,0.016085534652444264,0.0072444580506809434,240.60781652063778
388,0.9614216287475758,0.01448568222796158,0.0065341935113439175,214.20774193742344
389,0.7689666095687719,0.012452073501264812,0.005590442607252999,203.73962748600323
390,0.49729965867404496,0.005595799403399031,0.002589529705630197,162.06207872257767
391,0.4307617138726221,0.005053569329557683,0.002352117921773281,182.9104003824629
392,0.43205645266987136,0.004324477243162671,0.0019522943578357094,138.9290955448127
393,0.44265774187984835,0.004259777692729679,0.0019616089692345534,140.6726273739953
394,0.4686786442506605,0.004500819218021133,0.002060250004203891,143.7874831901208
395,0.8586348537035362,0.01585083966471462,0.007295639184980886,247.10367372484694
396,0.9045345263733442,0.018359329441472175,0.008392533499238118,293.95432681662254
397,0.9469842808712636,0.016765160824447064,0.007584673390481418,249.0479320435484
398,0.83431077591599,0.015347311865906677,0.006949524749899485,222.02915769064055
399,0.8442219291470342,0.012913030412816297,0.005916578937277288,216.7238003472571
400,0.05055665411231081,6.217743491798188e-05,2.7630813168690557e-05,10.827340904416275
401,0.037470080135529604,4.8879936567587784e-05,2.1058683219238695e-05,8.400311081807846
402,0.056575023189891105,5.850485661778453e-05,2.6130367022720005e-05,9.928910463298575
403,0.034732050679803124,2.1800647231540594e-05,1.0095349121565075e-05,5.9087605960747505
404,0.026944958612883343,1.4516323599457532e-05,6.551837334928933e-06,3.5777484025652453
405,0.029589417135467123,2.0610117593306695e-05,9.309759212803367e-06,4.679204146687236
406,0.02843057295760684,2.5520559419435874e-05,1.1737916509254103e-05,5.023806917191524
407,0.02829545888487907,2.022292841035584e-05,8.981985066497282e-06,4.83762634812084
408,0.03992161355667553,2.9926704296821595e-05,1.3441242187774737e-05,11.512576021305872
409,0.04097518067617467,3.21069922089755e-05,1.4519471312069792e-05,12.448870485876895
410,0.04095514172583746,3.304264292607515e-05,1.5599317998029196e-05,13.122295403802115
411,0.0399145202744957,3.064602329128277e-05,1.4151361130924115e-05,12.79030657258626
412,0.040617845505903694,3.0042111569321068e-05,1.3924607581491504e-05,13.359865551590836
413,0.040897565406161664,2.3656362873839587e-05,1.0833115792628913e-05,11.357581210775976
414,0.03502089862857059,2.5844732515515037e-05,1.2156308531855494e-05,13.213893160061518
415,0.037299189333734405,3.1293310610461586e-05,1.4598875630001966e-05,12.791194704226376
416,0.040221366968523964,3.0279626584275133e-05,1.3689091202677792e-05,12.071668343335658
417,0.03941737280951177,3.254413257577781e-05,1.5158547822748329e-05,13.753293477749047
418,0.6925768165306794,0.012044832574632897,0.005406049024947614,140.72684999794046
419,0.3146503243375373,0.0023725436852009554,0.0010810368063430462,71.72968459228055
420,0.3880680809090422,0.002856073947382247,0.001299141902111864,78.25809377864687
421,0.3087846358190576,0.003672747868787213,0.0017031197975257888,155.5170647403161
422,0.2333013285938071,0.0019469638419139337,0.0008756502635230803,96.42084102804748
423,0.33274935511640485,0.002463994502197854,0.001104346797557802,126.29564881775487
424,0.3841309530988738,0.0038698365773960383,0.0017356975010668191,58.129925734144365
425,0.26979116759709554,0.0017806495517976337,0.000808892268810887,48.16407616611357
426,0.5546302288754816,0.007611137767026424,0.0034615171127611636,127.12952225213802
427,0.37380138830897663,0.0028183540046479542,0.0013157463707014693,122.73604962056399
428,0.05198120495406032,7.861824734772548e-05,3.554780351629437e-05,9.299866175519183
429,1.5796128568565129,0.07328111660717838,0.03276767025458071,247.29526183902695
430,1.6412791471215042,0.0924639516639341,0.04108317103777525,291.9026162105599
431,1.275684091870759,0.05310860023126665,0.024022863197907838,224.68064844454184
432,1.562833878625189,0.08333540047494958,0.03710656275255237,266.41044633345507
433,0.2168590532466621,0.0012407180660423155,0.0005663171235828084,96.70025108027514
434,0.22521268544429535,0.0013461704850576415,0.0006173993994637749,121.26311559012572
435,0.21906147249689992,0.0009527613894433606,0.0004340985886318968,104.0687463039953
436,0.23812737113732801,0.0016741727978718149,0.0007758244101783211,218.7341353503345
437,0.24142156358294253,0.001156949282163436,0.0005306469715095364,127.02450839546606
438,0.12775548644129153,0.00013688993980115924,6.455323458592121e-05,20.357655657341905
439,0.10679276043009564,0.00013991520047216565,6.256161502860663e-05,19.690039561076546
440,0.12241350228034076,0.0002541145439317205,0.00011341545290393138,27.191926496247135
441,0.13605009842645144,0.0001720149918746946,7.607719068524508e-05,20.54774748793411
442,0.10384861818403879,0.00016204398808172815,7.233649005981785e-05,23.55683072767348
443,0.12404165087920846,0.0001533677390192377,7.058745779944398e-05,22.526897755643024
444,0.13799725210336908,0.00037781074895439597,0.00017352511997799426,56.408008952840895
445,0.12269156206472875,0.00047962152839920737,0.00022031657536520632,69.85267227250053
446,0.12039911567072334,0.0003031445750161642,0.00014062498410196935,69.75053317017971
447,0.13978161894491792,0.0004347486766266973,0.00020770155223721388,112.6596058797136
448,0.12082268442700685,0.00031635991857112595,0.00014824841934453606,109.17842164822143
449,0.09428187959681783,0.00024053656086195293,0.00010717781652480367,32.558518244361494
450,0.10101693874331664,0.00021867052011862318,9.769496664041724e-05,32.49819763554603
451,0.08425104241142528,0.00021629843493440104,9.744309420446847e-05,36.37821699794329
452,0.08901138533063527,0.00014383023033067672,6.487351513336392e-05,36.189318150389916
453,0.11578475223700907,0.0004149439249809506,0.00018714687871932144,60.853442943972965
454,0.1261263808246465,0.0003840715630022023,0.0001714718863537633,64.81643785656158
455,0.11564621897895701,0.0003401580177331772,0.00015271380140504485,62.407163844801644
456,0.10945463767280704,0.0003845045943831559,0.00017106379540007038,64.91556438051293
457,0.1215084423512395,0.00022341558697750236,0.00010053195088027925,24.917498907932572
458,0.1279223681322318,0.0002264457883653541,0.00010207093872663634,28.16695243843304
459,0.11883754792387782,0.00029874556891766303,0.00013107001317815535,26.18368594888037
460,0.1323188696037356,0.0003085104236506191,0.0001377328834178098,24.541451096088032
461,0.1076966185490204,0.0002723454810808858,0.0001224454520576733,25.95676819914177
462,0.11504337978809989,0.00023409020447009413,0.00010464171907679335,39.437222192065185
463,0.12923257787474624,0.0004620807311375189,0.00020572810529512504,73.8827360226124
464,0.14456394865714334,0.0004107811818778525,0.0001831224423991688,77.6504791509993
465,0.17017066020357374,0.00045119663352928205,0.00019876010008804484,90.44858291845769
466,0.15227243020106113,0.0004259269614693578,0.00019120190280007835,81.10940003856639
467,0.1292445043463924,0.00039879534883752226,0.00017768136186466725,60.56159947469418
468,0.04592713003339165,4.516185794865327e-05,2.0228776690818845e-05,20.361087252548984
469,0.05041140790340376,5.4924017069655834e-05,2.476680423415387e-05,28.557834168808437
470,0.043549439001617576,4.223030415932133e-05,1.9193533244185323e-05,22.837162468686287
471,0.04422181570932682,4.5121379601697756e-05,2.0358169371458956e-05,26.187703387129336
472,0.0351580163798192,2.845197490902933e-05,1.466681942607976e-05,13.018555445706244
473,0.03667183254673563,3.1794645459481335e-05,1.6092645053869915e-05,19.873767001899047
474,0.038884847368523275,3.0104519594252313e-05,1.4722488616618124e-05,14.488909560423826
475,0.03728157132918012,3.438926647172823e-05,1.6254157465466333e-05,12.869896365266413
476,0.1494403984349547,0.000450528065776981,0.00022203373142137971,45.41437413831945
477,0.13781005883476005,0.0004426450775340296,0.0002048997867224633,55.233216603647804
478,0.15551291096533304,0.0004721296644121813,0.0002188956752304977,55.60317159927051
479,0.17349755846740594,0.0005779449165743536,0.00027161589851384753,35.24776124892653
480,0.12511218585570064,0.00033016802164147826,0.00020082882179948942,32.541986092923466
481,0.1185397609602771,0.00031682446613943863,0.00015239919978320615,34.139039605529724
482,0.12733197600730692,0.0006089830113528726,0.0002763017721550322,31.01404282790706
483,0.08310564411126428,0.00014423753472076896,0.00016114184524680162,20.591176818566932
484,0.07898316654995102,0.00010318185644351952,0.00015002924010459626,23.825638754686995
485,0.06853770591037563,0.00010465272508734218,6.304171343509703e-05,24.95327559897572
486,0.07363274001079767,0.00019320731378965602,9.093514217249213e-05,21.81766334951875
487,0.11767924904013727,0.0002781638183760892,0.00012959331456486705,34.06803951184313
488,0.10191185327164433,0.0002537413772687828,0.00012558850020337158,29.472541403571523
489,0.10488342980806255,0.00027773870413744467,0.000123893503559975,33.12064392464325
490,0.11535145563749993,0.000203515096547521,9.204265879213269e-05,31.55779318836888
491,0.06494531443126556,0.0001209308313171833,5.576413371391353e-05,27.401369347224982
492,0.07313426797477193,9.595025700736443e-05,4.539354167336924e-05,23.294364064051642
493,0.06094938467638586,7.558666355814213e-05,3.531904466336978e-05,20.922522986404875
494,0.064060580002384,7.260630927246459e-05,3.4202025832811675e-05,22.772204400280334
495,0.1300304532066997,0.00031412122859584483,0.00014615525533156183,28.908150055847692
496,0.12385332927716122,0.00029534523982601416,0.0001376073139685733,30.79344546385982
497,0.1384710848900271,0.00026698880177816997,0.000122434715616999,33.739082264301054
498,0.14326975270387218,0.0004001207012221641,0.00018105685582928347,27.753112443787295
499,0.06169792072672654,6.254719441402307e-05,3.103542307976069e-05,16.43222613817927
500,0.06054341667578679,8.198039162488138e-05,3.951838454769226e-05,21.084249630686934
501,0.07000323922218446,8.811638468253436e-05,4.17593632823614e-05,23.225401297363863
502,0.0687547718943611,0.00014081501594120831,6.639203628654282e-05,20.838687873033294
503,0.273924786127443,0.0015156200649224247,0.0007462701519189061,94.63515341400556
504,0.2957996544669731,0.00130592528998672,0.0006373509196007042,97.42810248055284
505,0.2810598384831062,0.0019349171134157368,0.0009262754818462458,78.79230888351226
